1898,402.8
1899,421.3
1900,431.2
1901,426.2
1902,425.5
1903,423.6
1904,435.7
1905,445.2
1906,450.1
1907,450.1
1908,439.1
1909,419.0
1910,417.9
1911,384.2
1912,385.4
1913,374.4
1914,401.3
1915,382.7
1916,403.5
1917,410.0
1918,454.6
1919,448.2
1920,489.5
1921,476.2
1922,473.2
1923,475.1
1924,476.6
1925,502.7
1926,506.5
1927,499.7
1928,495.5
1929,522.8
1930,537.1
1931,509.1
1932,502.7
1933,500.4
1934,508.4
1935,498.9
1936,507.2
1937,505.0
1938,503.8
1939,511.4
1940,467.9
1941,493.6
1942,470.5
1943,503.5
1944,544.3
1945,553.0
1946,551.9
1947,564.4
1948,567.8
1949,562.1
1950,457.3
1951,500.1
1952,522.0
1953,525.4
1954,511.0
1955,533.4
1956,534.1
1957,562.9
1958,557.2
1959,584.1
1960,582.6
1961,590.5
1962,581.1
1963,583.0
1964,567.1
1965,499.3
1966,493.6
1967,533.7
1968,581.1